[gd_scene load_steps=5 format=2]

[ext_resource path="res://icon.png" type="Texture" id=1]
[ext_resource path="res://Main.gd" type="Script" id=2]

[sub_resource type="ProceduralSky" id=1]
sky_top_color = Color( 0.141176, 0.6, 0.854902, 1 )
ground_bottom_color = Color( 1, 1, 1, 1 )
ground_horizon_color = Color( 0.729412, 0.729412, 0.729412, 1 )
sun_color = Color( 1, 0.960784, 0.631373, 1 )
sun_angle_max = 56.39
texture_size = 0

[sub_resource type="Environment" id=2]
background_mode = 2
background_sky = SubResource( 1 )
ambient_light_energy = 0.0
ambient_light_sky_contribution = 0.0

[node name="Main" type="Spatial"]
script = ExtResource( 2 )

[node name="Sprite3D" type="Sprite3D" parent="."]
texture = ExtResource( 1 )

[node name="Camera" type="Camera" parent="."]
transform = Transform( 1, 0, 0, 0, 1, 0, 0, 0, 1, -0.03618, 0.117572, 1.24904 )
environment = SubResource( 2 )
near = 0.47
